id,x,y,z,ow,ox,oy,oz,vis,sel,lock,label,desc,associatedNodeID
vtkMRMLMarkupsFiducialNode_0,-10.03750802559755,20.098612412709603,15.567901590801256,0,0,0,1,1,1,0,F-1,nan,vtkMRMLScalarVolumeNode1
vtkMRMLMarkupsFiducialNode_1,-11.539494514465332,19.534840874323553,13.090354062600039,0,0,0,1,1,1,0,F-2,nan,vtkMRMLScalarVolumeNode1
vtkMRMLMarkupsFiducialNode_2,3.501921860589306,21.809171177698644,18.139887383984078,0,0,0,1,1,1,0,F-3,nan,vtkMRMLScalarVolumeNode1
vtkMRMLMarkupsFiducialNode_3,3.501921860589306,20.627605050869377,12.661717159593834,0,0,0,1,1,1,0,F-4,nan,vtkMRMLScalarVolumeNode1
