id,x,y,z,ow,ox,oy,oz,vis,sel,lock,label,desc,associatedNodeID,,
vtkMRMLMarkupsFiducialNode_0,-32.355808402149066,30.138870556519638,9.91920985170616,0,0,0,1,1,1,0,F-1,nan,vtkMRMLScalarVolumeNode1,2,0
vtkMRMLMarkupsFiducialNode_1,-34.63881435758502,27.748066879276077,10.274865870450942,0,0,0,1,1,1,0,F-2,nan,vtkMRMLScalarVolumeNode1,2,0
