id,x,y,z,ow,ox,oy,oz,vis,sel,lock,label,desc,associatedNodeID,,
vtkMRMLMarkupsFiducialNode_0,-1.4291302003889683,6.062274872273523,15.405410586991472,0,0,0,1,1,1,0,F-1,nan,vtkMRMLScalarVolumeNode1,2,0
vtkMRMLMarkupsFiducialNode_1,-1.126123559713312,3.9108780992800587,17.192017743478882,0,0,0,1,1,1,0,F-2,nan,vtkMRMLScalarVolumeNode1,2,0
