id,x,y,z,ow,ox,oy,oz,vis,sel,lock,label,desc,associatedNodeID,,
vtkMRMLMarkupsFiducialNode_0,-26.30562060924638,12.39158133723591,18.92974634086795,0,0,0,1,1,1,0,F-1,nan,vtkMRMLScalarVolumeNode1,2,0
vtkMRMLMarkupsFiducialNode_1,-27.368401391898697,15.193340331287216,23.13830331785621,0,0,0,1,1,1,0,F-2,nan,vtkMRMLScalarVolumeNode1,2,0
3,-3.4417680647314297,-1.212048671071086,8.770280606339657,0,0,0,1,1,1,0,tmi-3,,,2,0
4,-4.516612209203154,-0.06871947674837031,10.254289720995423,0,0,0,1,1,1,0,tmi-4,,,2,0
