id,x,y,z,ow,ox,oy,oz,vis,sel,lock,label,desc,associatedNodeID,,
vtkMRMLMarkupsFiducialNode_0,0.23433436463414736,18.476535409756096,18.80727710576544,0,0,0,1,1,1,0,F-1,nan,vtkMRMLScalarVolumeNode1,2,0
vtkMRMLMarkupsFiducialNode_1,0.47856303292682867,19.279322610731704,20.680657760936583,0,0,0,1,1,1,0,F-2,nan,vtkMRMLScalarVolumeNode1,2,0
vtkMRMLMarkupsFiducialNode_2,23.312715143032467,18.447484658381768,19.469604481924065,0,0,0,1,1,1,0,F-3,nan,vtkMRMLScalarVolumeNode1,2,0
vtkMRMLMarkupsFiducialNode_3,23.312715143032467,19.113498904128463,22.32014545371991,0,0,0,1,1,1,0,F-4,nan,vtkMRMLScalarVolumeNode1,2,0
